$ORIGIN __MAIN_DOMAIN__.
$TTL 3600
@   IN   SOA    __DNS_AUTH_MASTER_FQDN__.     __ADMIN_EMAIL_DNS__. (
                __SERIAL_ZONE_NUMBER__01      ; Serial
                3600            ; Refresh
                1800            ; Retry
                1209600         ; Expire
                43200 )         ; Negative Cache TTL


@                       IN  NS      __DNS_AUTH_MASTER_FQDN__.
@                       IN  NS      __DNS_AUTH_SLAVE_1_FQDN__.
@                       IN  NS      ns6.gandi.net.

@                       IN  A       __YNH_SERVER_1_PUB_IP4__
@                       IN  AAAA    __YNH_SERVER_1_PUB_IP6__

@                       IN  CAA 0   issue "letsencrypt.org"
@                       IN  CAA 0   iodef "mailto:__ADMIN_EMAIL_DNS__"

@                       IN  MX 10   apps.__MAIN_DOMAIN__.
@                       IN  TXT     "v=spf1 ip6:__YNH_SERVER_1_PUB_IP6__ ip4:__YNH_SERVER_1_PUB_IP4__ -all"
mail._domainkey         IN  TXT     "v=DKIM1; h=sha256; k=rsa; p=MIGfMA0GCSqGSIb3DQEBAQUAA4GNADCBiQKBgQDG4yF2WGDOFtKac8piSpCWnikJ5fUgX1hn9N5/ZQ66krGGOfyjwabAOq0ERj9TxhE9x0IqCMf7VPJBXmKMtYQOcG9fcSGbZmHbl0AM3L+A8FggkRtPrOK6GDFh8MF7JgXgWm8156go2i9jS9q0U5TbN5LU/oOonfqxeTMfZwwm4QIDAQAB"
_dmarc                  IN  TXT     "v=DMARC1; p=reject; rua=mailto:__ADMIN_EMAIL__; ruf=mailto:__ADMIN_EMAIL__; sp=reject; fo=1; aspf=s; adkim=s; rf=afrf; ri=86400"


; NS server
ns1                     IN  A       __DNS_AUTH_MASTER_IP4__
ns1                     IN  AAAA    __DNS_AUTH_MASTER_IP6__
ns1                     IN  TXT     "v=spf1 -all"

ns2                     IN  A       __DNS_AUTH_SLAVE_1_IP4__
ns2                     IN  AAAA    __DNS_AUTH_SLAVE_1_IP6__
ns2                     IN  TXT     "v=spf1 -all"


; DNS Resolver server
cornichon.infra         IN  A       __SNN_PUBLIC_IPV4_PREFIX__6.10
cornichon.infra         IN  AAAA    __SNN_PUBLIC_IPV6_PREFIX__0::a
cornichon.infra         IN  TXT     "v=spf1 -all"

concombre.infra         IN  A       __SNN_PUBLIC_IPV4_PREFIX__6.11
concombre.infra         IN  AAAA    __SNN_PUBLIC_IPV6_PREFIX__0::b
concombre.infra         IN  TXT     "v=spf1 -all"


; VPN server
vpn1                    IN  A       __VPN_1_SERVER_PUB_IP4__
vpn1                    IN  AAAA    __VPN_1_SERVER_PUB_IP6__
vpn1                    IN  TXT     "v=spf1 -all"


; Yunohost Server
apps                    IN  A       __YNH_SERVER_1_PUB_IP4__
apps                    IN  AAAA    __YNH_SERVER_1_PUB_IP6__
apps                    IN  TXT      "v=spf1 -all"
apps                    IN  CAA 0   issue "letsencrypt.org"
apps                    IN  CAA 0   iodef "mailto:__ADMIN_EMAIL_DNS__"

www                     IN  CNAME   apps.__MAIN_DOMAIN__.
infra                   IN  CNAME   apps.__MAIN_DOMAIN__.
mumble                  IN  CNAME   apps.__MAIN_DOMAIN__.

membres                 IN  A       __YNH_SERVER_1_PUB_IP4__
membres                 IN  AAAA    __YNH_SERVER_1_PUB_IP6__
membres                 IN  MX 10   apps.__MAIN_DOMAIN__.
membres                 IN  TXT     "v=spf1 ip6:__YNH_SERVER_1_PUB_IP6__ ip4:__YNH_SERVER_1_PUB_IP4__ -all"
mail._domainkey.membres IN  TXT     "v=DKIM1; h=sha256; k=rsa; p=MIGfMA0GCSqGSIb3DQEBAQUAA4GNADCBiQKBgQDOz60vNzg98RnkOvwFUVoYYE7ID6RTU0jD5qGtks/8+FZrH/pLmn45cSTwjWNmq1ZD/GyxU2rQmYYLtuZojVgv09NUQmb6fL6vsX41ARH8cTQTqyELkRAekD3WhaLQ7mDzMnU+oBr9E1ytfOCniqF9K1mct0hQ6virJUVJtTUdTQIDAQAB"
_dmarc.membres          IN  TXT     "v=DMARC1; p=reject; rua=mailto:__ADMIN_EMAIL__; ruf=mailto:__ADMIN_EMAIL__; sp=reject; fo=1; aspf=s; adkim=s; rf=afrf; ri=86400"
membres                 IN  CAA 0   issue "letsencrypt.org"
membres                 IN  CAA 0   iodef "mailto:__ADMIN_EMAIL_DNS__"

forum                   IN  A       __YNH_SERVER_1_PUB_IP4__
forum                   IN  AAAA    __YNH_SERVER_1_PUB_IP6__
forum                   IN  MX 10   apps.__MAIN_DOMAIN__.
forum                   IN  TXT     "v=spf1 ip6:__YNH_SERVER_1_PUB_IP6__ ip4:__YNH_SERVER_1_PUB_IP4__ -all"
mail._domainkey.forum   IN  TXT     "v=DKIM1; h=sha256; k=rsa; p=MIGfMA0GCSqGSIb3DQEBAQUAA4GNADCBiQKBgQCzx6RWfXFzjM5exkR5ravYsM1vbcHFnF9FRK7fGV0PRu4ipWJ/x6MCXMf3NmX1NtCGeQydr4O9OwJSJ0LTHJ8vuy4H+8LNcmABtQ8GP/LPt7wQ9+EvIjGwxphojg44e275Yjw92MB52/DzkhH9IXIPCgPjQwh2qWcOS6vx+zjqswIDAQAB"
_dmarc.forum            IN  TXT     "v=DMARC1; p=reject; rua=mailto:__ADMIN_EMAIL__; ruf=mailto:__ADMIN_EMAIL__; sp=reject; fo=1; aspf=s; adkim=s; rf=afrf; ri=86400"
forum                   IN  CAA 0   issue "letsencrypt.org"
forum                   IN  CAA 0   iodef "mailto:__ADMIN_EMAIL_DNS__"

; Nodes
potager01.infra         IN  AAAA    __SNN_PUBLIC_IPV6_PREFIX__0:0:1::21
potager01.infra         IN  TXT     "v=spf1 -all"

potager02.infra         IN  AAAA    __SNN_PUBLIC_IPV6_PREFIX__0:0:1::22
potager02.infra         IN  TXT     "v=spf1 -all"

choux01.infra           IN  A       62.220.134.40
choux01.infra           IN  AAAA    __SNN_PUBLIC_IPV6_PREFIX__0:0:1::29
choux01.infra           IN  TXT     "v=spf1 -all"


; Other VM
kiwi.infra              IN  A       __SNN_PUBLIC_IPV4_PREFIX__6.1
kiwi.infra              IN  AAAA    __SNN_PUBLIC_IPV6_PREFIX__0::1
kiwi.infra              IN  TXT     "v=spf1 -all"

courgette.infra         IN  A       __SNN_PUBLIC_IPV4_PREFIX__6.3
courgette.infra         IN  AAAA    __SNN_PUBLIC_IPV6_PREFIX__0::3
courgette.infra         IN  TXT     "v=spf1 -all"

chips1.infra            IN  AAAA    __SNN_PUBLIC_IPV6_PREFIX__0:0:1::30
chips1.infra            IN  TXT     "v=spf1 -all"

chips2.infra            IN  AAAA    __SNN_PUBLIC_IPV6_PREFIX__0:0:1::31
chips2.infra            IN  TXT     "v=spf1 -all"

; Hardware
idrac01.infra           IN  AAAA    __SNN_PUBLIC_IPV6_PREFIX__0:0:3::21
idrac01.infra           IN  TXT     "v=spf1 -all"

idrac02.infra           IN  AAAA    __SNN_PUBLIC_IPV6_PREFIX__0:0:3::22
idrac02.infra           IN  TXT     "v=spf1 -all"

idrac03.infra           IN  AAAA    __SNN_PUBLIC_IPV6_PREFIX__0:0:3::23
idrac03.infra           IN  TXT     "v=spf1 -all"

idrac04.infra           IN  AAAA    __SNN_PUBLIC_IPV6_PREFIX__0:0:3::24
idrac04.infra           IN  TXT     "v=spf1 -all"

haricot01.infra         IN  AAAA    __SNN_PUBLIC_IPV6_PREFIX__0:0:3::10
haricot01.infra         IN  TXT     "v=spf1 -all"

; Test infra
potager03.test          IN  A       __SNN_PUBLIC_IPV4_PREFIX__6.16
potager03.test          IN  AAAA    __SNN_PUBLIC_IPV6_PREFIX__0::16
potager03.test          IN  TXT     "v=spf1 -all"

potager04.test          IN  A       __SNN_PUBLIC_IPV4_PREFIX__6.17
potager04.test          IN  AAAA    __SNN_PUBLIC_IPV6_PREFIX__0::17
potager04.test          IN  TXT     "v=spf1 -all"

main-router.test        IN  A       __SNN_PUBLIC_IPV4_PREFIX__6.18
potager04.test          IN  AAAA    __SNN_PUBLIC_IPV6_PREFIX__0::18
potager04.test          IN  TXT     "v=spf1 -all"

test                    IN  NS     ns1.test.swissneutral.net.
test                    IN  NS     ns2.test.swissneutral.net.
ns1.test                IN  A      10.250.56.12
ns1.test                IN  AAAA   fd0a:db40::c
ns2.test                IN  A      10.250.56.13
ns2.test                IN  AAAA   fd0a:db40::d
test                    IN  DNSKEY 257 3 8 AwEAAcsihyBFrVGAXvLb542LQwnaOaxS/+ekLeGu2eQR1Y8eWP4v+PCr SYpOO6l6bp+0H+h0PNG82HR2L/kgucRt/C/qxvVuJjv7KatiuWi7u8H7 KjW2fmBQMQig6SWE5+tyM15B+7jQQJOvynslG4RCdzGcoMS4gxrvrBuB gu8L1vKExiAZEp9Kr+wshqCzSz5EyD50VVxzm6bXFzIrXopFaZQ9vi68 sgmXHSQa0icvTCmpFuxDQi6Hih1c+8m7pNnB4yL7ZKak7mCSZig5AZ3V 9ruzxUz4IDkeEuYVlWdKTNL6vfXf5/jLYoQZS42ytf3UmVuqChIWS0Qo AJlFiCW9tJU=

; Other domains
connect                 IN  A       __SNN_PUBLIC_IPV4_PREFIX__9.1
connect                 IN  AAAA    __SNN_PUBLIC_IPV6_PREFIX__1:ffef::1
v4.connect              IN  A       __SNN_PUBLIC_IPV4_PREFIX__9.1
v6.connect              IN  AAAA    __SNN_PUBLIC_IPV6_PREFIX__1:ffef::1

; TLSA (not used because we need to find a way to update the zone when the cert is updated by let's encrypt
;_443._tcp.swissneutral.net.     IN TLSA 3 0 1 TLSA_VALEUR_A_METTRE
;_25._tcp.swissneutral.net.      IN TLSA 3 0 1 TLSA_VALEUR_A_METTRE
;_465._tcp.swissneutral.net.     IN TLSA 3 0 1 TLSA_VALEUR_A_METTRE
;_993._tcp.swissneutral.net.     IN TLSA 3 0 1 TLSA_VALEUR_A_METTRE


;DNSSEC
$INCLUDE "../keys/K__MAIN_DOMAIN__.zsk.key" ;
$INCLUDE "../keys/K__MAIN_DOMAIN__.ksk.key" ;

